<svg width="72" height="58" viewBox="0 0 72 58" fill="none" xmlns="http://www.w3.org/2000/svg">
    <path d="M3 38C12.3057 46.0018 12.5 45.5 24.7475 52.6628C29.4194 54.8438 30.3276 56.6276 32.8889 52.5851C43.5679 35.7303 55.4312 19.0618 69 3" stroke="#1ABF49" stroke-width="5" stroke-linecap="round" stroke-linejoin="round"/>
</svg>
