<svg width="59" height="66" viewBox="0 0 59 66" fill="none" xmlns="http://www.w3.org/2000/svg">
    <path d="M8.02138 55C8.02138 49.7038 8.02138 41.2922 8.02138 35.996C8.02138 29.4746 7.36307 23.2161 13.352 18.2381C19.0726 13.4831 26.9981 12.0738 34.8411 12.0072C43.2473 11.9359 46.7808 20 47.5 25C49.1814 36.6886 50 41.7304 50 53.5" stroke="#1ABF49" stroke-width="4" stroke-linecap="round" stroke-linejoin="round"/>
    <path d="M2 55.7573C12.5376 55.7573 23.0751 55.7573 33.6127 55.7573C37.8091 55.7573 52.8197 55.5994 57 55" stroke="#1ABF49" stroke-width="4" stroke-linecap="round" stroke-linejoin="round"/>
    <path d="M22.5 57C22.5588 59.114 22.5 64 27 64C30.8615 64 30.5 59.5 30.5 57.5" stroke="#1ABF49" stroke-width="4" stroke-linecap="round" stroke-linejoin="round"/>
    <path d="M24.312 13C24.312 9.08638 22.2414 1.67677 28.7682 2.01093C31.1905 2.13495 30.9963 8.72159 30.9963 10.4143" stroke="#1ABF49" stroke-width="4" stroke-linecap="round" stroke-linejoin="round"/>
</svg>
