<svg width="57" height="44" viewBox="0 0 57 44" fill="none" xmlns="http://www.w3.org/2000/svg">
    <path d="M2 23.8604C2.05973 26.0976 2.14956 28.0793 3.44375 29.9042C6.01444 33.5291 9.50678 38.0005 13.5706 39.5607C19.3888 41.7943 27.5888 43.2019 33.3913 40.5831C39.1247 37.9956 44.6708 33.213 49.3344 28.7682C51.5875 26.6208 52.846 23.7284 53.5419 20.5658C54.1562 17.7744 53.9751 14.8507 53.9751 12" stroke="#1ABF49" stroke-width="4" stroke-linecap="round" stroke-linejoin="round"/>
    <path d="M10.0313 11.2485C17.9453 12.4356 9.15464 2.66638 10.0675 9.51249C10.2602 10.9584 11.9843 10.6479 11.9843 9.29549C11.9843 8.42252 11.3333 11.2345 11.3333 11.8996" stroke="#1ABF49" stroke-width="4" stroke-linecap="round" stroke-linejoin="round"/>
    <path d="M34.7698 5.38927C37.423 -1.68591 30.7701 4.16658 34.1911 6.3658C37.7506 8.65401 40.4445 5.38927 36.7229 5.38927" stroke="#1ABF49" stroke-width="4" stroke-linecap="round" stroke-linejoin="round"/>
</svg>
