<svg width="49" height="68" viewBox="0 0 49 68" fill="none" xmlns="http://www.w3.org/2000/svg">
<path d="M10.3849 52.6122C7.20412 49.9562 6.14517 45.7261 4.22073 42.3511C3.47002 41.0346 2.53928 39.9342 2.23005 38.4531C1.85793 36.6708 2.04705 34.7559 2.05543 32.9528C2.07796 28.1027 3.31248 23.4726 6.45588 19.4408C7.6562 17.9012 8.64259 16.201 9.96577 14.7416C11.4707 13.0818 13.3077 11.8171 15.3092 10.6588C18.0267 9.08608 21.2243 7.93356 24.2498 6.88404C26.7081 6.03128 29.1378 4.86983 31.6712 4.21862C33.8409 3.66088 36.0677 3.34254 38.202 2.6625C39.0187 2.40229 39.9849 2 40.8737 2" stroke="#1ABF49" stroke-width="4" stroke-linecap="round" stroke-linejoin="round"/>
<path d="M40.8737 2C43.5586 6.10012 45.4358 10.8002 46.252 15.4812C46.5964 17.4563 46.5314 19.4158 46.5314 21.4129C46.5314 24.1357 46.6392 26.7038 45.9377 29.363C45.2396 32.0094 44.0741 34.486 43.039 37.0357C42.1173 39.3059 40.2577 41.3498 38.7084 43.3218C37.5853 44.7513 36.3644 46.44 34.7096 47.4509C32.8829 48.5666 30.718 49.2287 28.8947 50.3628C27.6533 51.1349 26.8342 51.816 25.3499 52.1962C24.5322 52.4057 23.7729 52.698 22.9314 52.8279C22.1677 52.9458 21.3452 52.9169 20.6002 53.059C18.9558 53.3727 17.462 53.5829 15.7632 53.5829C14.8186 53.5829 13.6933 53.7145 12.7771 53.475C12.2547 53.3384 11.2622 53.3292 10.9087 53.7061C7.35663 57.4931 7.70226 55.8174 5.05134 60.0701C4.24474 61.364 3.18084 64.5241 2.43701 65.8367" stroke="#1ABF49" stroke-width="4" stroke-linecap="round" stroke-linejoin="round"/>
<path d="M9.03223 53.5695C10.2005 50.2855 12.3808 47.1155 14.037 43.9819C15.561 41.0984 17.0279 38.1764 18.7098 35.348C19.9363 33.2856 20.9385 31.1632 22.2847 29.1443C24.0455 26.5037 25.9343 23.9087 27.6469 21.2487C30.2034 17.278 32.2677 13.1086 34.7583 9.10794C35.2705 8.28527 35.6928 7.42365 36.3798 6.68799" stroke="#1ABF49" stroke-width="4" stroke-linecap="round" stroke-linejoin="round"/>
<path d="M14.5018 42.6307C13.0328 37.9386 10.432 33.5553 9.61112 28.7415C9.30226 26.9304 9.09646 25.0933 8.51143 23.3119C8.39969 22.9716 8.25098 22.6652 8.25098 22.3154" stroke="#1ABF49" stroke-width="4" stroke-linecap="round" stroke-linejoin="round"/>
<path d="M20.7524 38.3584C25.0344 38.3584 29.3717 38.5418 33.6395 38.212C35.3245 38.0818 36.9772 37.9424 38.6686 37.9424" stroke="#1ABF49" stroke-width="4" stroke-linecap="round" stroke-linejoin="round"/>
<path d="M23.8779 23.8781C23.0913 20.7829 22.223 17.6925 21.3505 14.622C21.1359 13.8668 21.1707 12.8093 20.7524 12.1577" stroke="#1ABF49" stroke-width="4" stroke-linecap="round" stroke-linejoin="round"/>
<path d="M30.1289 23.0969C33.1898 23.0759 36.2374 23.0633 39.2716 22.5312C40.3762 22.3375 41.5722 22.1621 42.6087 21.6277C42.8612 21.4975 43.14 21.5412 43.412 21.5412" stroke="#1ABF49" stroke-width="4" stroke-linecap="round" stroke-linejoin="round"/>
</svg>
